[
  {
    "_class": "com.fortumo.service.Service",
    "id":1,
    "price": 1.01,
    "name": "Service 1",
    "provider": "Service provider 1"
  },
  {
    "_class": "com.fortumo.service.Service",
    "id":2,
    "price": 2.02,
    "name": "Service 2",
    "provider": "Service provider 2"
  },
  {
    "_class": "com.fortumo.service.Service",
    "id":3,
    "price": 2.99,
    "name": "Premium account",
    "provider": "GO Server"
  },
  {
    "_class": "com.fortumo.payment.Payment",
    "id": 1,
    "paymentDate": "2016-11-31",
    "periodStart": "2016-11-14",
    "periodEnd": "2016-11-31",
    "cost": 2.02
  },
  {
    "_class": "com.fortumo.payment.Payment",
    "id": 2,
    "paymentDate": "2016-12-31",
    "periodStart": "2016-12-01",
    "periodEnd": "2016-12-31",
    "cost": 2.99
  },
  {
    "_class": "com.fortumo.customer.Customer",
    "id":1,
    "service": {
      "id": 3
    },
    "phone": 543210,
    "isPremium": false,
    "payments":[{
      "id": 2
    }]
  },
  {
    "_class": "com.fortumo.customer.Customer",
    "id":2,
    "service": {
      "id": 3
    },
    "phone": 5357234,
    "isPremium": true,
    "payments":[{
      "id": 1
    }]
  }
]